[
    {
        "type": "message",
        "subtype": "bot_message",
        "text": "<!everyone> \nECS-Flexapi-Spot : *running* (Launch time: 2019-04-24 15:04:35+00:00)\nBenchmark : stopped\n<http:\/\/hdp.sonra.io|hdp.sonra.io> : stopped\nHortonworks : stopped\nHortonworks : stopped\nHortonworks : stopped\nFlexAPI : *running* (Launch time: 2019-03-25 09:46:59+00:00)\nFlexter-Demo : stopped\nECS-Node2 : stopped\n<http:\/\/edge.hdp.sonra.io|edge.hdp.sonra.io> : stopped",
        "ts": "1558368005.000100",
        "username": "AWS Bot",
        "icons": {
            "emoji": ":eyes:",
            "image_64": "https:\/\/a.slack-edge.com\/37d58\/img\/emoji_2017_12_06\/apple\/1f440.png"
        },
        "bot_id": "B7CJ2NCAD"
    },
    {
        "type": "message",
        "subtype": "bot_message",
        "text": "<!everyone> \nECS-Flexapi-Spot : *running* (Launch time: 2019-04-24 15:04:35+00:00)\nBenchmark : stopped\n<http:\/\/hdp.sonra.io|hdp.sonra.io> : stopped\nHortonworks : stopped\nHortonworks : stopped\nHortonworks : stopped\nFlexAPI : *running* (Launch time: 2019-03-25 09:46:59+00:00)\nFlexter-Demo : stopped\nECS-Node2 : stopped\n<http:\/\/edge.hdp.sonra.io|edge.hdp.sonra.io> : stopped",
        "ts": "1558375204.000200",
        "username": "AWS Bot",
        "icons": {
            "emoji": ":eyes:",
            "image_64": "https:\/\/a.slack-edge.com\/37d58\/img\/emoji_2017_12_06\/apple\/1f440.png"
        },
        "bot_id": "B7CJ2NCAD"
    },
    {
        "type": "message",
        "subtype": "bot_message",
        "text": "<!everyone> \nECS-Flexapi-Spot : *running* (Launch time: 2019-04-24 15:04:35+00:00)\nBenchmark : stopped\n<http:\/\/hdp.sonra.io|hdp.sonra.io> : stopped\nHortonworks : stopped\nHortonworks : stopped\nHortonworks : stopped\nFlexAPI : *running* (Launch time: 2019-03-25 09:46:59+00:00)\nFlexter-Demo : stopped\nECS-Node2 : stopped\n<http:\/\/edge.hdp.sonra.io|edge.hdp.sonra.io> : stopped",
        "ts": "1558382404.000100",
        "username": "AWS Bot",
        "icons": {
            "emoji": ":eyes:",
            "image_64": "https:\/\/a.slack-edge.com\/37d58\/img\/emoji_2017_12_06\/apple\/1f440.png"
        },
        "bot_id": "B7CJ2NCAD"
    },
    {
        "type": "message",
        "subtype": "bot_message",
        "text": "<!everyone> \nECS-Flexapi-Spot : *running* (Launch time: 2019-04-24 15:04:35+00:00)\nBenchmark : stopped\n<http:\/\/hdp.sonra.io|hdp.sonra.io> : stopped\nHortonworks : stopped\nHortonworks : stopped\nHortonworks : stopped\nFlexAPI : *running* (Launch time: 2019-03-25 09:46:59+00:00)\nFlexter-Demo : stopped\nECS-Node2 : stopped\n<http:\/\/edge.hdp.sonra.io|edge.hdp.sonra.io> : stopped",
        "ts": "1558389618.000100",
        "username": "AWS Bot",
        "icons": {
            "emoji": ":eyes:",
            "image_64": "https:\/\/a.slack-edge.com\/37d58\/img\/emoji_2017_12_06\/apple\/1f440.png"
        },
        "bot_id": "B7CJ2NCAD"
    }
]